info face="DS Stamper" size=-47 bold=0 italic=0 charset="" unicode=1 stretchH=100 smooth=1 aa=1 padding=0,0,0,0 spacing=1,1 outline=0
common lineHeight=58 base=46 scaleW=1024 scaleH=1024 pages=1 packed=0 alphaChnl=0 redChnl=4 greenChnl=4 blueChnl=4
page id=0 file="Ds_Stamper_47_0.png"
chars count=258
char id=32   x=68    y=53    width=3     height=1     xoffset=-1    yoffset=57    xadvance=28    page=0  chnl=15
char id=33   x=1010  y=0     width=13    height=37    xoffset=0     yoffset=10    xadvance=13    page=0  chnl=15
char id=34   x=725   y=225   width=23    height=15    xoffset=0     yoffset=9     xadvance=23    page=0  chnl=15
char id=35   x=206   y=238   width=33    height=31    xoffset=0     yoffset=10    xadvance=33    page=0  chnl=15
char id=36   x=187   y=0     width=24    height=47    xoffset=0     yoffset=5     xadvance=24    page=0  chnl=15
char id=37   x=784   y=40    width=35    height=37    xoffset=0     yoffset=11    xadvance=35    page=0  chnl=15
char id=39   x=777   y=223   width=13    height=15    xoffset=0     yoffset=9     xadvance=14    page=0  chnl=15
char id=40   x=38    y=0     width=14    height=54    xoffset=0     yoffset=4     xadvance=14    page=0  chnl=15
char id=41   x=53    y=0     width=14    height=54    xoffset=0     yoffset=4     xadvance=14    page=0  chnl=15
char id=42   x=703   y=225   width=21    height=19    xoffset=0     yoffset=9     xadvance=21    page=0  chnl=15
char id=43   x=592   y=227   width=28    height=26    xoffset=0     yoffset=19    xadvance=28    page=0  chnl=15
char id=44   x=847   y=223   width=13    height=14    xoffset=0     yoffset=39    xadvance=13    page=0  chnl=15
char id=45   x=893   y=222   width=22    height=8     xoffset=0     yoffset=22    xadvance=22    page=0  chnl=15
char id=46   x=916   y=222   width=10    height=7     xoffset=0     yoffset=39    xadvance=10    page=0  chnl=15
char id=47   x=448   y=84    width=24    height=37    xoffset=0     yoffset=11    xadvance=25    page=0  chnl=15
char id=48   x=158   y=240   width=23    height=32    xoffset=0     yoffset=14    xadvance=23    page=0  chnl=15
char id=49   x=1006  y=40    width=17    height=37    xoffset=0     yoffset=9     xadvance=17    page=0  chnl=15
char id=50   x=737   y=116   width=25    height=36    xoffset=0     yoffset=10    xadvance=25    page=0  chnl=15
char id=51   x=982   y=0     width=27    height=39    xoffset=0     yoffset=9     xadvance=27    page=0  chnl=15
char id=52   x=264   y=86    width=27    height=37    xoffset=0     yoffset=9     xadvance=27    page=0  chnl=15
char id=53   x=630   y=192   width=24    height=34    xoffset=0     yoffset=12    xadvance=24    page=0  chnl=15
char id=54   x=357   y=47    width=26    height=38    xoffset=0     yoffset=9     xadvance=26    page=0  chnl=15
char id=55   x=388   y=161   width=25    height=35    xoffset=0     yoffset=11    xadvance=25    page=0  chnl=15
char id=56   x=302   y=47    width=27    height=38    xoffset=0     yoffset=9     xadvance=27    page=0  chnl=15
char id=57   x=815   y=116   width=25    height=36    xoffset=0     yoffset=10    xadvance=25    page=0  chnl=15
char id=58   x=621   y=227   width=10    height=23    xoffset=0     yoffset=23    xadvance=10    page=0  chnl=15
char id=59   x=1009  y=187   width=13    height=30    xoffset=0     yoffset=23    xadvance=13    page=0  chnl=15
char id=60   x=815   y=223   width=15    height=14    xoffset=0     yoffset=23    xadvance=15    page=0  chnl=15
char id=61   x=791   y=223   width=23    height=14    xoffset=0     yoffset=24    xadvance=23    page=0  chnl=15
char id=62   x=831   y=223   width=15    height=14    xoffset=0     yoffset=23    xadvance=15    page=0  chnl=15
char id=63   x=0     y=240   width=21    height=33    xoffset=0     yoffset=13    xadvance=21    page=0  chnl=15
char id=64   x=0     y=169   width=36    height=35    xoffset=0     yoffset=11    xadvance=36    page=0  chnl=15
char id=65   x=0     y=205   width=27    height=34    xoffset=0     yoffset=11    xadvance=27    page=0  chnl=15
char id=66   x=830   y=188   width=24    height=34    xoffset=0     yoffset=12    xadvance=24    page=0  chnl=15
char id=67   x=522   y=82    width=23    height=37    xoffset=0     yoffset=11    xadvance=23    page=0  chnl=15
char id=68   x=983   y=187   width=25    height=33    xoffset=0     yoffset=14    xadvance=25    page=0  chnl=15
char id=69   x=42    y=240   width=19    height=33    xoffset=0     yoffset=13    xadvance=20    page=0  chnl=15
char id=70   x=684   y=80    width=19    height=37    xoffset=0     yoffset=9     xadvance=19    page=0  chnl=15
char id=71   x=175   y=167   width=26    height=35    xoffset=0     yoffset=12    xadvance=27    page=0  chnl=15
char id=72   x=487   y=122   width=27    height=36    xoffset=0     yoffset=11    xadvance=27    page=0  chnl=15
char id=73   x=931   y=187   width=12    height=34    xoffset=0     yoffset=11    xadvance=13    page=0  chnl=15
char id=74   x=893   y=187   width=18    height=34    xoffset=0     yoffset=12    xadvance=18    page=0  chnl=15
char id=75   x=148   y=92    width=28    height=37    xoffset=0     yoffset=9     xadvance=29    page=0  chnl=15
char id=76   x=642   y=80    width=21    height=37    xoffset=0     yoffset=9     xadvance=21    page=0  chnl=15
char id=77   x=78    y=53    width=38    height=38    xoffset=0     yoffset=9     xadvance=38    page=0  chnl=15
char id=78   x=140   y=205   width=27    height=34    xoffset=0     yoffset=12    xadvance=27    page=0  chnl=15
char id=79   x=498   y=230   width=24    height=29    xoffset=0     yoffset=15    xadvance=24    page=0  chnl=15
char id=80   x=441   y=196   width=26    height=34    xoffset=0     yoffset=12    xadvance=26    page=0  chnl=15
char id=81   x=592   y=0     width=28    height=41    xoffset=0     yoffset=10    xadvance=29    page=0  chnl=15
char id=82   x=369   y=232   width=24    height=31    xoffset=0     yoffset=13    xadvance=24    page=0  chnl=15
char id=83   x=971   y=115   width=22    height=36    xoffset=0     yoffset=11    xadvance=23    page=0  chnl=15
char id=84   x=318   y=86    width=25    height=37    xoffset=0     yoffset=10    xadvance=26    page=0  chnl=15
char id=85   x=862   y=0     width=29    height=39    xoffset=0     yoffset=8     xadvance=30    page=0  chnl=15
char id=86   x=851   y=40    width=30    height=37    xoffset=0     yoffset=10    xadvance=30    page=0  chnl=15
char id=87   x=706   y=41    width=38    height=37    xoffset=0     yoffset=11    xadvance=38    page=0  chnl=15
char id=88   x=569   y=229   width=22    height=28    xoffset=0     yoffset=15    xadvance=22    page=0  chnl=15
char id=89   x=267   y=233   width=26    height=31    xoffset=0     yoffset=15    xadvance=27    page=0  chnl=15
char id=90   x=182   y=238   width=23    height=32    xoffset=0     yoffset=13    xadvance=23    page=0  chnl=15
char id=91   x=68    y=0     width=17    height=52    xoffset=0     yoffset=1     xadvance=17    page=0  chnl=15
char id=92   x=473   y=84    width=24    height=37    xoffset=0     yoffset=11    xadvance=25    page=0  chnl=15
char id=93   x=86    y=0     width=16    height=52    xoffset=0     yoffset=1     xadvance=17    page=0  chnl=15
char id=94   x=680   y=225   width=22    height=19    xoffset=0     yoffset=11    xadvance=22    page=0  chnl=15
char id=95   x=927   y=222   width=22    height=5     xoffset=0     yoffset=45    xadvance=23    page=0  chnl=15
char id=96   x=749   y=225   width=13    height=15    xoffset=0     yoffset=9     xadvance=14    page=0  chnl=15
char id=97   x=832   y=0     width=29    height=39    xoffset=0     yoffset=9     xadvance=29    page=0  chnl=15
char id=98   x=780   y=188   width=24    height=34    xoffset=0     yoffset=12    xadvance=24    page=0  chnl=15
char id=99   x=546   y=82    width=23    height=37    xoffset=0     yoffset=11    xadvance=23    page=0  chnl=15
char id=100  x=330   y=47    width=26    height=38    xoffset=0     yoffset=9     xadvance=26    page=0  chnl=15
char id=101  x=919   y=115   width=25    height=36    xoffset=0     yoffset=11    xadvance=25    page=0  chnl=15
char id=102  x=82    y=240   width=19    height=33    xoffset=0     yoffset=12    xadvance=19    page=0  chnl=15
char id=103  x=706   y=0     width=30    height=40    xoffset=0     yoffset=9     xadvance=30    page=0  chnl=15
char id=104  x=515   y=120   width=27    height=36    xoffset=0     yoffset=11    xadvance=27    page=0  chnl=15
char id=105  x=970   y=187   width=12    height=34    xoffset=0     yoffset=11    xadvance=13    page=0  chnl=15
char id=106  x=874   y=187   width=18    height=34    xoffset=0     yoffset=12    xadvance=18    page=0  chnl=15
char id=107  x=177   y=89    width=28    height=37    xoffset=0     yoffset=9     xadvance=29    page=0  chnl=15
char id=108  x=336   y=161   width=25    height=35    xoffset=0     yoffset=11    xadvance=25    page=0  chnl=15
char id=109  x=39    y=55    width=38    height=38    xoffset=0     yoffset=9     xadvance=38    page=0  chnl=15
char id=110  x=168   y=203   width=27    height=34    xoffset=0     yoffset=12    xadvance=27    page=0  chnl=15
char id=111  x=344   y=124   width=28    height=36    xoffset=0     yoffset=11    xadvance=28    page=0  chnl=15
char id=112  x=495   y=195   width=26    height=34    xoffset=0     yoffset=12    xadvance=26    page=0  chnl=15
char id=113  x=621   y=0     width=28    height=41    xoffset=0     yoffset=10    xadvance=29    page=0  chnl=15
char id=114  x=37    y=169   width=27    height=35    xoffset=0     yoffset=11    xadvance=27    page=0  chnl=15
char id=115  x=755   y=188   width=24    height=34    xoffset=0     yoffset=12    xadvance=24    page=0  chnl=15
char id=116  x=370   y=86    width=25    height=37    xoffset=0     yoffset=10    xadvance=26    page=0  chnl=15
char id=117  x=922   y=0     width=29    height=39    xoffset=0     yoffset=8     xadvance=30    page=0  chnl=15
char id=118  x=820   y=40    width=30    height=37    xoffset=0     yoffset=10    xadvance=30    page=0  chnl=15
char id=119  x=745   y=41    width=38    height=37    xoffset=0     yoffset=11    xadvance=38    page=0  chnl=15
char id=120  x=60    y=94    width=29    height=37    xoffset=0     yoffset=10    xadvance=29    page=0  chnl=15
char id=121  x=240   y=238   width=26    height=31    xoffset=0     yoffset=15    xadvance=27    page=0  chnl=15
char id=122  x=763   y=116   width=25    height=36    xoffset=0     yoffset=11    xadvance=25    page=0  chnl=15
char id=123  x=0     y=0     width=18    height=54    xoffset=0     yoffset=4     xadvance=18    page=0  chnl=15
char id=124  x=111   y=0     width=7     height=52    xoffset=0     yoffset=1     xadvance=8     page=0  chnl=15
char id=125  x=19    y=0     width=18    height=54    xoffset=0     yoffset=4     xadvance=18    page=0  chnl=15
char id=126  x=861   y=222   width=31    height=11    xoffset=0     yoffset=24    xadvance=32    page=0  chnl=15
char id=160  x=72    y=53    width=3     height=1     xoffset=-1    yoffset=57    xadvance=28    page=0  chnl=15
char id=166  x=103   y=0     width=7     height=52    xoffset=0     yoffset=1     xadvance=8     page=0  chnl=15
char id=171  x=656   y=225   width=23    height=21    xoffset=0     yoffset=23    xadvance=23    page=0  chnl=15
char id=177  x=419   y=232   width=28    height=30    xoffset=0     yoffset=19    xadvance=28    page=0  chnl=15
char id=180  x=763   y=223   width=13    height=15    xoffset=0     yoffset=9     xadvance=14    page=0  chnl=15
char id=187  x=632   y=227   width=23    height=21    xoffset=0     yoffset=23    xadvance=23    page=0  chnl=15
char id=192  x=84    y=205   width=27    height=34    xoffset=0     yoffset=11    xadvance=27    page=0  chnl=15
char id=193  x=489   y=159   width=24    height=35    xoffset=0     yoffset=11    xadvance=24    page=0  chnl=15
char id=194  x=730   y=190   width=24    height=34    xoffset=0     yoffset=12    xadvance=24    page=0  chnl=15
char id=195  x=704   y=80    width=19    height=37    xoffset=0     yoffset=9     xadvance=19    page=0  chnl=15
char id=196  x=795   y=0     width=36    height=39    xoffset=0     yoffset=8     xadvance=36    page=0  chnl=15
char id=197  x=22    y=240   width=19    height=33    xoffset=0     yoffset=13    xadvance=20    page=0  chnl=15
char id=198  x=438   y=46    width=44    height=37    xoffset=0     yoffset=9     xadvance=44    page=0  chnl=15
char id=199  x=711   y=118   width=25    height=36    xoffset=0     yoffset=11    xadvance=25    page=0  chnl=15
char id=200  x=56    y=205   width=27    height=34    xoffset=0     yoffset=12    xadvance=27    page=0  chnl=15
char id=201  x=354   y=0     width=27    height=46    xoffset=0     yoffset=0     xadvance=27    page=0  chnl=15
char id=202  x=206   y=87    width=28    height=37    xoffset=0     yoffset=9     xadvance=29    page=0  chnl=15
char id=203  x=913   y=40    width=30    height=37    xoffset=0     yoffset=10    xadvance=30    page=0  chnl=15
char id=204  x=117   y=53    width=38    height=38    xoffset=0     yoffset=9     xadvance=38    page=0  chnl=15
char id=205  x=599   y=120   width=27    height=36    xoffset=0     yoffset=11    xadvance=27    page=0  chnl=15
char id=206  x=448   y=231   width=24    height=29    xoffset=0     yoffset=15    xadvance=24    page=0  chnl=15
char id=207  x=571   y=120   width=27    height=36    xoffset=0     yoffset=11    xadvance=27    page=0  chnl=15
char id=208  x=387   y=197   width=26    height=34    xoffset=0     yoffset=12    xadvance=26    page=0  chnl=15
char id=209  x=618   y=80    width=23    height=37    xoffset=0     yoffset=11    xadvance=23    page=0  chnl=15
char id=210  x=422   y=85    width=25    height=37    xoffset=0     yoffset=10    xadvance=26    page=0  chnl=15
char id=211  x=319   y=232   width=24    height=31    xoffset=0     yoffset=15    xadvance=25    page=0  chnl=15
char id=212  x=814   y=153   width=35    height=34    xoffset=0     yoffset=12    xadvance=36    page=0  chnl=15
char id=213  x=523   y=229   width=22    height=28    xoffset=0     yoffset=15    xadvance=22    page=0  chnl=15
char id=214  x=992   y=78    width=31    height=36    xoffset=0     yoffset=11    xadvance=31    page=0  chnl=15
char id=215  x=522   y=194   width=26    height=34    xoffset=0     yoffset=12    xadvance=26    page=0  chnl=15
char id=216  x=42    y=132   width=41    height=36    xoffset=0     yoffset=11    xadvance=41    page=0  chnl=15
char id=217  x=862   y=78    width=45    height=36    xoffset=0     yoffset=11    xadvance=45    page=0  chnl=15
char id=218  x=886   y=152   width=31    height=34    xoffset=0     yoffset=12    xadvance=31    page=0  chnl=15
char id=219  x=514   y=159   width=38    height=34    xoffset=0     yoffset=12    xadvance=38    page=0  chnl=15
char id=220  x=306   y=197   width=26    height=34    xoffset=0     yoffset=12    xadvance=26    page=0  chnl=15
char id=221  x=202   y=167   width=26    height=35    xoffset=0     yoffset=12    xadvance=27    page=0  chnl=15
char id=222  x=778   y=153   width=35    height=34    xoffset=0     yoffset=13    xadvance=35    page=0  chnl=15
char id=223  x=93    y=169   width=27    height=35    xoffset=0     yoffset=11    xadvance=27    page=0  chnl=15
char id=224  x=952   y=0     width=29    height=39    xoffset=0     yoffset=9     xadvance=29    page=0  chnl=15
char id=225  x=439   y=160   width=24    height=35    xoffset=0     yoffset=11    xadvance=24    page=0  chnl=15
char id=226  x=680   y=190   width=24    height=34    xoffset=0     yoffset=12    xadvance=24    page=0  chnl=15
char id=227  x=362   y=161   width=25    height=35    xoffset=0     yoffset=11    xadvance=25    page=0  chnl=15
char id=228  x=384   y=47    width=26    height=38    xoffset=0     yoffset=9     xadvance=26    page=0  chnl=15
char id=229  x=893   y=115   width=25    height=36    xoffset=0     yoffset=11    xadvance=25    page=0  chnl=15
char id=230  x=528   y=44    width=44    height=37    xoffset=0     yoffset=9     xadvance=44    page=0  chnl=15
char id=231  x=789   y=116   width=25    height=36    xoffset=0     yoffset=11    xadvance=25    page=0  chnl=15
char id=232  x=224   y=203   width=27    height=34    xoffset=0     yoffset=12    xadvance=27    page=0  chnl=15
char id=233  x=270   y=0     width=27    height=46    xoffset=0     yoffset=0     xadvance=27    page=0  chnl=15
char id=234  x=235   y=86    width=28    height=37    xoffset=0     yoffset=9     xadvance=29    page=0  chnl=15
char id=235  x=944   y=40    width=30    height=37    xoffset=0     yoffset=10    xadvance=30    page=0  chnl=15
char id=236  x=195   y=48    width=38    height=38    xoffset=0     yoffset=9     xadvance=38    page=0  chnl=15
char id=237  x=459   y=122   width=27    height=36    xoffset=0     yoffset=11    xadvance=27    page=0  chnl=15
char id=238  x=373   y=124   width=28    height=36    xoffset=0     yoffset=11    xadvance=28    page=0  chnl=15
char id=239  x=655   y=118   width=27    height=36    xoffset=0     yoffset=11    xadvance=27    page=0  chnl=15
char id=240  x=252   y=198   width=26    height=34    xoffset=0     yoffset=12    xadvance=26    page=0  chnl=15
char id=241  x=594   y=82    width=23    height=37    xoffset=0     yoffset=11    xadvance=23    page=0  chnl=15
char id=242  x=292   y=86    width=25    height=37    xoffset=0     yoffset=10    xadvance=26    page=0  chnl=15
char id=243  x=102   y=240   width=27    height=32    xoffset=0     yoffset=14    xadvance=27    page=0  chnl=15
char id=244  x=670   y=155   width=35    height=34    xoffset=0     yoffset=12    xadvance=36    page=0  chnl=15
char id=245  x=30    y=94    width=29    height=37    xoffset=0     yoffset=10    xadvance=29    page=0  chnl=15
char id=246  x=312   y=124   width=31    height=36    xoffset=0     yoffset=11    xadvance=31    page=0  chnl=15
char id=247  x=468   y=195   width=26    height=34    xoffset=0     yoffset=12    xadvance=26    page=0  chnl=15
char id=248  x=908   y=78    width=41    height=36    xoffset=0     yoffset=11    xadvance=41    page=0  chnl=15
char id=249  x=724   y=79    width=45    height=36    xoffset=0     yoffset=11    xadvance=45    page=0  chnl=15
char id=250  x=918   y=152   width=31    height=34    xoffset=0     yoffset=12    xadvance=31    page=0  chnl=15
char id=251  x=553   y=157   width=38    height=34    xoffset=0     yoffset=12    xadvance=38    page=0  chnl=15
char id=252  x=549   y=194   width=26    height=34    xoffset=0     yoffset=12    xadvance=26    page=0  chnl=15
char id=253  x=256   y=161   width=26    height=35    xoffset=0     yoffset=12    xadvance=27    page=0  chnl=15
char id=254  x=166   y=130   width=40    height=36    xoffset=0     yoffset=11    xadvance=40    page=0  chnl=15
char id=255  x=294   y=232   width=24    height=31    xoffset=0     yoffset=13    xadvance=24    page=0  chnl=15
char id=1025 x=737   y=0     width=20    height=40    xoffset=0     yoffset=6     xadvance=21    page=0  chnl=15
char id=1026 x=119   y=0     width=33    height=49    xoffset=0     yoffset=9     xadvance=34    page=0  chnl=15
char id=1027 x=382   y=0     width=17    height=46    xoffset=0     yoffset=0     xadvance=17    page=0  chnl=15
char id=1028 x=121   y=169   width=26    height=35    xoffset=0     yoffset=12    xadvance=27    page=0  chnl=15
char id=1029 x=994   y=115   width=22    height=36    xoffset=0     yoffset=11    xadvance=23    page=0  chnl=15
char id=1030 x=944   y=187   width=12    height=34    xoffset=0     yoffset=11    xadvance=13    page=0  chnl=15
char id=1031 x=530   y=0     width=20    height=43    xoffset=0     yoffset=2     xadvance=20    page=0  chnl=15
char id=1032 x=912   y=187   width=18    height=34    xoffset=0     yoffset=12    xadvance=18    page=0  chnl=15
char id=1033 x=618   y=42    width=43    height=37    xoffset=0     yoffset=10    xadvance=43    page=0  chnl=15
char id=1034 x=84    y=132   width=40    height=36    xoffset=0     yoffset=11    xadvance=40    page=0  chnl=15
char id=1035 x=234   y=47    width=33    height=38    xoffset=0     yoffset=9     xadvance=34    page=0  chnl=15
char id=1036 x=241   y=0     width=28    height=46    xoffset=0     yoffset=0     xadvance=29    page=0  chnl=15
char id=1038 x=477   y=0     width=26    height=43    xoffset=0     yoffset=3     xadvance=27    page=0  chnl=15
char id=1039 x=650   y=0     width=27    height=41    xoffset=0     yoffset=11    xadvance=27    page=0  chnl=15
char id=1040 x=28    y=205   width=27    height=34    xoffset=0     yoffset=11    xadvance=27    page=0  chnl=15
char id=1041 x=464   y=159   width=24    height=35    xoffset=0     yoffset=11    xadvance=24    page=0  chnl=15
char id=1042 x=805   y=188   width=24    height=34    xoffset=0     yoffset=12    xadvance=24    page=0  chnl=15
char id=1043 x=664   y=80    width=19    height=37    xoffset=0     yoffset=9     xadvance=19    page=0  chnl=15
char id=1044 x=758   y=0     width=36    height=39    xoffset=0     yoffset=8     xadvance=36    page=0  chnl=15
char id=1045 x=62    y=240   width=19    height=33    xoffset=0     yoffset=13    xadvance=20    page=0  chnl=15
char id=1046 x=483   y=44    width=44    height=37    xoffset=0     yoffset=9     xadvance=44    page=0  chnl=15
char id=1047 x=945   y=115   width=25    height=36    xoffset=0     yoffset=11    xadvance=25    page=0  chnl=15
char id=1048 x=112   y=205   width=27    height=34    xoffset=0     yoffset=12    xadvance=27    page=0  chnl=15
char id=1049 x=298   y=0     width=27    height=46    xoffset=0     yoffset=0     xadvance=27    page=0  chnl=15
char id=1050 x=90    y=92    width=28    height=37    xoffset=0     yoffset=9     xadvance=29    page=0  chnl=15
char id=1051 x=882   y=40    width=30    height=37    xoffset=0     yoffset=10    xadvance=30    page=0  chnl=15
char id=1052 x=0     y=55    width=38    height=38    xoffset=0     yoffset=9     xadvance=38    page=0  chnl=15
char id=1053 x=431   y=123   width=27    height=36    xoffset=0     yoffset=11    xadvance=27    page=0  chnl=15
char id=1054 x=473   y=230   width=24    height=29    xoffset=0     yoffset=15    xadvance=24    page=0  chnl=15
char id=1055 x=627   y=118   width=27    height=36    xoffset=0     yoffset=11    xadvance=27    page=0  chnl=15
char id=1056 x=603   y=192   width=26    height=34    xoffset=0     yoffset=12    xadvance=26    page=0  chnl=15
char id=1057 x=570   y=82    width=23    height=37    xoffset=0     yoffset=11    xadvance=23    page=0  chnl=15
char id=1058 x=344   y=86    width=25    height=37    xoffset=0     yoffset=10    xadvance=26    page=0  chnl=15
char id=1059 x=394   y=232   width=24    height=31    xoffset=0     yoffset=15    xadvance=25    page=0  chnl=15
char id=1060 x=742   y=153   width=35    height=34    xoffset=0     yoffset=12    xadvance=36    page=0  chnl=15
char id=1061 x=546   y=229   width=22    height=28    xoffset=0     yoffset=15    xadvance=22    page=0  chnl=15
char id=1062 x=280   y=124   width=31    height=36    xoffset=0     yoffset=11    xadvance=31    page=0  chnl=15
char id=1063 x=333   y=197   width=26    height=34    xoffset=0     yoffset=12    xadvance=26    page=0  chnl=15
char id=1064 x=950   y=78    width=41    height=36    xoffset=0     yoffset=11    xadvance=41    page=0  chnl=15
char id=1065 x=816   y=78    width=45    height=36    xoffset=0     yoffset=11    xadvance=45    page=0  chnl=15
char id=1066 x=982   y=152   width=31    height=34    xoffset=0     yoffset=12    xadvance=31    page=0  chnl=15
char id=1067 x=631   y=155   width=38    height=34    xoffset=0     yoffset=12    xadvance=38    page=0  chnl=15
char id=1068 x=576   y=192   width=26    height=34    xoffset=0     yoffset=12    xadvance=26    page=0  chnl=15
char id=1069 x=148   y=167   width=26    height=35    xoffset=0     yoffset=12    xadvance=27    page=0  chnl=15
char id=1070 x=706   y=155   width=35    height=34    xoffset=0     yoffset=13    xadvance=35    page=0  chnl=15
char id=1071 x=65    y=169   width=27    height=35    xoffset=0     yoffset=11    xadvance=27    page=0  chnl=15
char id=1072 x=892   y=0     width=29    height=39    xoffset=0     yoffset=9     xadvance=29    page=0  chnl=15
char id=1073 x=414   y=161   width=24    height=35    xoffset=0     yoffset=11    xadvance=24    page=0  chnl=15
char id=1074 x=655   y=190   width=24    height=34    xoffset=0     yoffset=12    xadvance=24    page=0  chnl=15
char id=1075 x=310   y=161   width=25    height=35    xoffset=0     yoffset=11    xadvance=25    page=0  chnl=15
char id=1076 x=411   y=46    width=26    height=38    xoffset=0     yoffset=9     xadvance=26    page=0  chnl=15
char id=1077 x=841   y=115   width=25    height=36    xoffset=0     yoffset=11    xadvance=25    page=0  chnl=15
char id=1078 x=573   y=44    width=44    height=37    xoffset=0     yoffset=9     xadvance=44    page=0  chnl=15
char id=1079 x=867   y=115   width=25    height=36    xoffset=0     yoffset=11    xadvance=25    page=0  chnl=15
char id=1080 x=196   y=203   width=27    height=34    xoffset=0     yoffset=12    xadvance=27    page=0  chnl=15
char id=1081 x=326   y=0     width=27    height=46    xoffset=0     yoffset=0     xadvance=27    page=0  chnl=15
char id=1082 x=119   y=92    width=28    height=37    xoffset=0     yoffset=9     xadvance=29    page=0  chnl=15
char id=1083 x=975   y=40    width=30    height=37    xoffset=0     yoffset=10    xadvance=30    page=0  chnl=15
char id=1084 x=156   y=50    width=38    height=38    xoffset=0     yoffset=9     xadvance=38    page=0  chnl=15
char id=1085 x=543   y=120   width=27    height=36    xoffset=0     yoffset=11    xadvance=27    page=0  chnl=15
char id=1086 x=402   y=124   width=28    height=36    xoffset=0     yoffset=11    xadvance=28    page=0  chnl=15
char id=1087 x=683   y=118   width=27    height=36    xoffset=0     yoffset=11    xadvance=27    page=0  chnl=15
char id=1088 x=414   y=197   width=26    height=34    xoffset=0     yoffset=12    xadvance=26    page=0  chnl=15
char id=1089 x=498   y=82    width=23    height=37    xoffset=0     yoffset=11    xadvance=23    page=0  chnl=15
char id=1090 x=396   y=86    width=25    height=37    xoffset=0     yoffset=10    xadvance=26    page=0  chnl=15
char id=1091 x=130   y=240   width=27    height=32    xoffset=0     yoffset=14    xadvance=27    page=0  chnl=15
char id=1092 x=850   y=152   width=35    height=34    xoffset=0     yoffset=12    xadvance=36    page=0  chnl=15
char id=1093 x=0     y=94    width=29    height=37    xoffset=0     yoffset=10    xadvance=29    page=0  chnl=15
char id=1094 x=248   y=124   width=31    height=36    xoffset=0     yoffset=11    xadvance=31    page=0  chnl=15
char id=1095 x=279   y=197   width=26    height=34    xoffset=0     yoffset=12    xadvance=26    page=0  chnl=15
char id=1096 x=0     y=132   width=41    height=36    xoffset=0     yoffset=11    xadvance=41    page=0  chnl=15
char id=1097 x=770   y=79    width=45    height=36    xoffset=0     yoffset=11    xadvance=45    page=0  chnl=15
char id=1098 x=950   y=152   width=31    height=34    xoffset=0     yoffset=12    xadvance=31    page=0  chnl=15
char id=1099 x=592   y=157   width=38    height=34    xoffset=0     yoffset=12    xadvance=38    page=0  chnl=15
char id=1100 x=360   y=197   width=26    height=34    xoffset=0     yoffset=12    xadvance=26    page=0  chnl=15
char id=1101 x=283   y=161   width=26    height=35    xoffset=0     yoffset=12    xadvance=27    page=0  chnl=15
char id=1102 x=125   y=130   width=40    height=36    xoffset=0     yoffset=11    xadvance=40    page=0  chnl=15
char id=1103 x=344   y=232   width=24    height=31    xoffset=0     yoffset=13    xadvance=24    page=0  chnl=15
char id=1105 x=400   y=0     width=25    height=45    xoffset=0     yoffset=2     xadvance=25    page=0  chnl=15
char id=1106 x=153   y=0     width=33    height=49    xoffset=0     yoffset=9     xadvance=34    page=0  chnl=15
char id=1107 x=426   y=0     width=22    height=45    xoffset=0     yoffset=1     xadvance=22    page=0  chnl=15
char id=1108 x=229   y=162   width=26    height=35    xoffset=0     yoffset=12    xadvance=27    page=0  chnl=15
char id=1109 x=705   y=190   width=24    height=34    xoffset=0     yoffset=12    xadvance=24    page=0  chnl=15
char id=1110 x=957   y=187   width=12    height=34    xoffset=0     yoffset=11    xadvance=13    page=0  chnl=15
char id=1111 x=551   y=0     width=20    height=43    xoffset=0     yoffset=2     xadvance=20    page=0  chnl=15
char id=1112 x=855   y=187   width=18    height=34    xoffset=0     yoffset=12    xadvance=18    page=0  chnl=15
char id=1113 x=662   y=42    width=43    height=37    xoffset=0     yoffset=10    xadvance=43    page=0  chnl=15
char id=1114 x=207   y=125   width=40    height=36    xoffset=0     yoffset=11    xadvance=40    page=0  chnl=15
char id=1115 x=268   y=47    width=33    height=38    xoffset=0     yoffset=9     xadvance=34    page=0  chnl=15
char id=1116 x=212   y=0     width=28    height=46    xoffset=0     yoffset=0     xadvance=29    page=0  chnl=15
char id=1118 x=449   y=0     width=27    height=43    xoffset=0     yoffset=3     xadvance=27    page=0  chnl=15
char id=1119 x=678   y=0     width=27    height=41    xoffset=0     yoffset=11    xadvance=27    page=0  chnl=15
char id=1168 x=572   y=0     width=19    height=43    xoffset=0     yoffset=3     xadvance=19    page=0  chnl=15
char id=1169 x=504   y=0     width=25    height=43    xoffset=0     yoffset=3     xadvance=25    page=0  chnl=15
